{
    "$schema": "http://json-schema.org/draft-04/schema#",
    "title": "Localizacao da farmacia",
    "description": "Atribuicao de um local a farmacia",
    "type": "object",
    "properties" : {
        "stock" : {
            "type" : "object",
            "properties" : {
                "nome" : { "type" : "string" },
                "descricao" : { "type" : "string" } 
            },
        }
    },
    
    "require" : ["stock"]
}