{
    "$schema": "http://json-schema.org/draft-04/schema#",
    "title": "Farmacia",
    "description": "Definicao da farmacia",
    "type": "object",
    "properties": {
        "nome": {
            "description": "Name of the product",
            "type": "string"
        },
        "descricao": {
            "type": "string"
        }
    }
}